Chapitre 5 Manipuler des données | Préparer ses données avec R et le Tidyverse
…
Exemple pour calculer les statistiques précédentes par mois :

exercice <- mutate(exercice, annee = year(date_prelevement))

paran <- group_by(exercice, annee)

summarise (paran, mesure_moyenne = mean(resultat_analyse, na.rm = T),
                  mesure_total = sum(resultat_analyse, na.rm = T))

## # A tibble: 26 x 3
##    annee mesure_moyenne mesure_total
##    <dbl>          <dbl>        <dbl>
##  1  1991         0.0981         4.32
##  2  1992         0.137          8.33
##  3  1993         0.123          6.14
##  4  1994         0.0684         4.72
##  5  1995         0.0803         6.99
##  6  1996         0.0915         6.86
##  7  1997         0.0529         5.14
##  8  1998         0.131         46.5 
##  9  1999         0.0547        89.7 
## 10  2000         0.118        191.  
## # … with 16 more rows
…
En reprenant l’exemple précédent, sans passer par les étapes intermédiaires, le code aurait cette tête :

summarise (
  group_by (
    mutate (
      exercice,
      annee = year (date_prelevement)
            ),
      annee
            ), 
          mesure_moyenne = mean (resultat_analyse, na.rm = T),
          mesure_total = sum (resultat_analyse, na.rm = T)
          )

## # A tibble: 26 x 3
##    annee mesure_moyenne mesure_total
##    <dbl>          <dbl>        <dbl>
##  1  1991         0.0981         4.32
##  2  1992         0.137          8.33
##  3  1993         0.123          6.14
##  4  1994         0.0684         4.72
##  5  1995         0.0803         6.99
##  6  1996         0.0915         6.86
##  7  1997         0.0529         5.14
##  8  1998         0.131         46.5 
##  9  1999         0.0547        89.7 
## 10  2000         0.118        191.  
## # … with 16 more rows

Avec l’utilisation du pipe (raccourci clavier CTrl + Maj + M), il devient :

exercice %>%
  mutate(annee = year(date_prelevement)) %>%
  group_by(annee) %>%
  summarise(mesure_moyenne = mean (resultat_analyse, na.rm = T),
            mesure_total = sum (resultat_analyse, na.rm = T))

## # A tibble: 26 x 3
##    annee mesure_moyenne mesure_total
##    <dbl>          <dbl>        <dbl>
##  1  1991         0.0981         4.32
##  2  1992         0.137          8.33
##  3  1993         0.123          6.14
##  4  1994         0.0684         4.72
##  5  1995         0.0803         6.99
##  6  1996         0.0915         6.86
##  7  1997         0.0529         5.14
##  8  1998         0.131         46.5 
##  9  1999         0.0547        89.7 
## 10  2000         0.118        191.  
## # … with 16 more rows
…
summarise(parametre, across(starts_with("code"), n_distinct))

##   code_parametre code_unite_reference code_cas_substance_chimique code_fonction
## 1            659                    3                         646            23
##   code_famille
## 1           68

group_by(prelevement, across(code_intervenant:code_station)) %>%
  summarise(across(everything(), list(nb = n_distinct)))

## # A tibble: 823 x 7
## # Groups:   code_intervenant, code_reseau [12]
##    code_intervenant code_reseau code_station code_prelevemen… date_prelevemen…
##               <dbl> <chr>       <chr>                   <int>            <int>
##  1               44 ARS         044000001                  66               66
##  2               44 ARS         044000044                   8                8
##  3               44 ARS         044000045                   6                6
##  4               44 ARS         044000046                   6                6
##  5               44 ARS         044000047                   4                4
##  6               44 ARS         044000048                   6                6
##  7               44 ARS         044000070                   7                7
##  8               44 ARS         044000071                   6                6
##  9               44 ARS         044000076                   7                7
## 10               44 ARS         044000077                   6                6
## # … with 813 more rows, and 2 more variables: code_support_nb <int>,
## #   commentaire_nb <int>
…
