Chapitre 8 Nettoyer des données territoriales : gérer les évolutions du COG (code officiel géographique) | Préparer ses données avec R et le Tidyverse
…
# Région Bretagne
enq_tourisme_epci_dep %>% 
  filtrer_cog(reg = "53", garder_supra = TRUE) %>% 
  arrange(desc(TypeZone))

## # A tibble: 1,352 × 54
##    TypeZone Zone        CodeZ…¹  HT19 HT019 HT119 HT219 HT319 HT419 HT519 HTCH19
##    <fct>    <fct>       <fct>   <dbl> <dbl> <dbl> <dbl> <dbl> <dbl> <dbl>  <dbl>
##  1 France   France mét… FRMETRO 17720  4690   405  4363  5957  1936   369 642779
##  2 France   Départemen… DROM      229   102     2    29    64    27     5  11440
##  3 Epci     CC Faucign… 200000…     6     2     0     4     0     0     0     77
##  4 Epci     CC du Pays… 200000…     5     2     0     1     1     0     1     92
##  5 Epci     CC des Por… 200000…     3     0     0     2     1     0     0    121
##  6 Epci     CC Rhône L… 200000…    11     2     1     6     2     0     0    330
##  7 Epci     CC Coeur d… 200000…     8     4     1     2     1     0     0    138
##  8 Epci     CC de la P… 200000…     1     1     0     0     0     0     0      8
##  9 Epci     CC Sauldre… 200000…     6     3     0     2     1     0     0     68
## 10 Epci     CC du Pays… 200004…     9     2     0     2     4     0     1    219
## # … with 1,342 more rows, 43 more variables: HTCH019 <dbl>, HTCH119 <dbl>,
## #   HTCH219 <dbl>, HTCH319 <dbl>, HTCH419 <dbl>, HTCH519 <dbl>, CPG19 <dbl>,
## #   CPG019 <dbl>, CPG119 <dbl>, CPG219 <dbl>, CPG319 <dbl>, CPG419 <dbl>,
## #   CPG519 <dbl>, CPGE19 <dbl>, CPGE019 <dbl>, CPGE119 <dbl>, CPGE219 <dbl>,
## #   CPGE319 <dbl>, CPGE419 <dbl>, CPGE519 <dbl>, CPGEL19 <dbl>, CPGEL019 <dbl>,
## #   CPGEL119 <dbl>, CPGEL219 <dbl>, CPGEL319 <dbl>, CPGEL419 <dbl>,
## #   CPGEL519 <dbl>, CPGEO19 <dbl>, CPGEO019 <dbl>, CPGEO119 <dbl>, …
…
