Chapitre 7 Structurer ses tables | Préparer ses données avec R et le Tidyverse
…
chaque variable est une colonne,

chaque observation est une ligne,

les unités d’observations différentes sont stockées dans des tables différentes.

Le respect de ces règles va nous amener parfois à devoir changer la définition des lignes et colonnes de nos tables en entrée.

Ci-dessous un exemple simple : la population estimée par département et genre en 2019. Ce fichier est un extrait d’un tableur mis à disposition par l’Insee.

estim_pop <- read_excel('extdata/estim-pop-dep-sexe-gca-2019.xls')
estim_pop

## # A tibble: 104 x 20
##    dep   lib_dep Ensemble_019ans Ensemble_2039ans Ensemble_4059ans
##    <chr> <chr>             <dbl>            <dbl>            <dbl>
##  1 01    Ain              167720           150949           179476
##  2 02    Aisne            131435           115046           137405
##  3 03    Allier            67628            61986            87232
##  4 04    Alpes-…           33883            30028            43039
##  5 05    Hautes…           30518            28633            37887
##  6 06    Alpes-…          228072           237427           282270
##  7 07    Ardèche           71385            62186            88572
##  8 08    Ardenn…           61006            56583            71821
##  9 09    Ariège            31143            28962            41017
## 10 10    Aube              74510            69537            78475
## # … with 94 more rows, and 15 more variables: Ensemble_6074ans <dbl>,
## #   Ensemble_75ansetplus <dbl>, Ensemble_Total <dbl>, Homme_019ans <dbl>,
## #   Homme_2039ans <dbl>, Homme_4059ans <dbl>, Homme_6074ans <dbl>,
## #   Homme_75ansetplus <dbl>, Homme_Total <dbl>, Femme_019ans <dbl>,
## #   Femme_2039ans <dbl>, Femme_4059ans <dbl>, Femme_6074ans <dbl>,
## #   Femme_75ansetplus <dbl>, Femme_Total <dbl>

En quoi ce fichier n’est pas tidy ?

On retrouve 4 variables dans notre fichier : le territoire, le genre, l’âge et la population, et nos colonnes ne correspondent pas à ces variables.

Quel serait la version tidy de notre fichier ?

## # A tibble: 1,872 x 5
##    dep   lib_dep genre    age         nombre_individus
##    <chr> <chr>   <chr>    <chr>                  <dbl>
##  1 01    Ain     Ensemble 019ans                167720
##  2 01    Ain     Ensemble 2039ans               150949
##  3 01    Ain     Ensemble 4059ans               179476
##  4 01    Ain     Ensemble 6074ans               102788
##  5 01    Ain     Ensemble 75ansetplus            52755
##  6 01    Ain     Ensemble Total                 653688
##  7 01    Ain     Homme    019ans                 86359
##  8 01    Ain     Homme    2039ans                75242
##  9 01    Ain     Homme    4059ans                89278
## 10 01    Ain     Homme    6074ans                49523
## # … with 1,862 more rows
…
